<?xml version="1.0" encoding="UTF-8" standalone="no"?>
<!DOCTYPE svg PUBLIC "-//W3C//DTD SVG 1.1//EN"
 "http://www.w3.org/Graphics/SVG/1.1/DTD/svg11.dtd">
<!-- Generated by graphviz version 2.40.1 (20161225.0304)
 -->
<!-- Title: %3 Pages: 1 -->
<svg width="134pt" height="476pt"
 viewBox="0.00 0.00 134.00 476.00" xmlns="http://www.w3.org/2000/svg" xmlns:xlink="http://www.w3.org/1999/xlink">
<g id="graph0" class="graph" transform="scale(1 1) rotate(0) translate(4 472)">
<title>%3</title>
<polygon fill="#ffffff" stroke="transparent" points="-4,4 -4,-472 130,-472 130,4 -4,4"/>
<!-- A -->
<g id="node1" class="node">
<title>A</title>
<ellipse fill="none" stroke="#000000" cx="63" cy="-18" rx="27" ry="18"/>
<text text-anchor="middle" x="63" y="-14.3" font-family="Times,serif" font-size="14.00" fill="#000000">A</text>
</g>
<!-- B -->
<g id="node2" class="node">
<title>B</title>
<ellipse fill="none" stroke="#000000" cx="27" cy="-90" rx="27" ry="18"/>
<text text-anchor="middle" x="27" y="-86.3" font-family="Times,serif" font-size="14.00" fill="#000000">B</text>
</g>
<!-- B&#45;&gt;A -->
<g id="edge1" class="edge">
<title>B&#45;&gt;A</title>
<path fill="none" stroke="#000000" d="M35.7146,-72.5708C41.3747,-61.2506 48.7216,-46.5568 54.3657,-35.2687"/>
</g>
<!-- C -->
<g id="node3" class="node">
<title>C</title>
<ellipse fill="none" stroke="#000000" cx="99" cy="-90" rx="27" ry="18"/>
<text text-anchor="middle" x="99" y="-86.3" font-family="Times,serif" font-size="14.00" fill="#000000">C</text>
</g>
<!-- C&#45;&gt;A -->
<g id="edge2" class="edge">
<title>C&#45;&gt;A</title>
<path fill="none" stroke="#000000" d="M90.2854,-72.5708C84.6253,-61.2506 77.2784,-46.5568 71.6343,-35.2687"/>
</g>
<!-- D -->
<g id="node4" class="node">
<title>D</title>
<ellipse fill="none" stroke="#000000" cx="82" cy="-162" rx="27" ry="18"/>
<text text-anchor="middle" x="82" y="-158.3" font-family="Times,serif" font-size="14.00" fill="#000000">D</text>
</g>
<!-- D&#45;&gt;B -->
<g id="edge3" class="edge">
<title>D&#45;&gt;B</title>
<path fill="none" stroke="#000000" d="M69.5196,-145.6621C60.5186,-133.8788 48.4207,-118.0416 39.431,-106.2733"/>
</g>
<!-- D&#45;&gt;C -->
<g id="edge4" class="edge">
<title>D&#45;&gt;C</title>
<path fill="none" stroke="#000000" d="M86.2022,-144.2022C88.8177,-133.1252 92.1698,-118.928 94.7872,-107.8425"/>
</g>
<!-- E -->
<g id="node5" class="node">
<title>E</title>
<ellipse fill="none" stroke="#000000" cx="54" cy="-234" rx="27" ry="18"/>
<text text-anchor="middle" x="54" y="-230.3" font-family="Times,serif" font-size="14.00" fill="#000000">E</text>
</g>
<!-- E&#45;&gt;B -->
<g id="edge5" class="edge">
<title>E&#45;&gt;B</title>
<path fill="none" stroke="#000000" d="M50.635,-216.0535C45.4611,-188.4592 35.6067,-135.9026 30.4074,-108.1727"/>
</g>
<!-- E&#45;&gt;D -->
<g id="edge6" class="edge">
<title>E&#45;&gt;D</title>
<path fill="none" stroke="#000000" d="M60.778,-216.5708C65.1479,-205.3339 70.8106,-190.7727 75.1874,-179.5182"/>
</g>
<!-- F -->
<g id="node6" class="node">
<title>F</title>
<ellipse fill="none" stroke="#000000" cx="82" cy="-306" rx="27" ry="18"/>
<text text-anchor="middle" x="82" y="-302.3" font-family="Times,serif" font-size="14.00" fill="#000000">F</text>
</g>
<!-- F&#45;&gt;E -->
<g id="edge7" class="edge">
<title>F&#45;&gt;E</title>
<path fill="none" stroke="#000000" d="M75.222,-288.5708C70.8521,-277.3339 65.1894,-262.7727 60.8126,-251.5182"/>
</g>
<!-- G -->
<g id="node7" class="node">
<title>G</title>
<ellipse fill="none" stroke="#000000" cx="54" cy="-378" rx="27" ry="18"/>
<text text-anchor="middle" x="54" y="-374.3" font-family="Times,serif" font-size="14.00" fill="#000000">G</text>
</g>
<!-- G&#45;&gt;E -->
<g id="edge8" class="edge">
<title>G&#45;&gt;E</title>
<path fill="none" stroke="#000000" d="M50.6685,-360.0736C48.8913,-349.5982 46.8913,-336.0982 46,-324 44.8244,-308.0432 44.8244,-303.9568 46,-288 46.8913,-275.9018 48.8913,-262.4018 50.6685,-251.9264"/>
</g>
<!-- G&#45;&gt;F -->
<g id="edge9" class="edge">
<title>G&#45;&gt;F</title>
<path fill="none" stroke="#000000" d="M60.778,-360.5708C65.1479,-349.3339 70.8106,-334.7727 75.1874,-323.5182"/>
</g>
<!-- H -->
<g id="node8" class="node">
<title>H</title>
<ellipse fill="none" stroke="#000000" cx="54" cy="-450" rx="27" ry="18"/>
<text text-anchor="middle" x="54" y="-446.3" font-family="Times,serif" font-size="14.00" fill="#000000">H</text>
</g>
<!-- H&#45;&gt;G -->
<g id="edge10" class="edge">
<title>H&#45;&gt;G</title>
<path fill="none" stroke="#000000" d="M54,-431.8314C54,-421 54,-407.2876 54,-396.4133"/>
</g>
</g>
</svg>
