<?xml version="1.0" encoding="UTF-8" standalone="no"?>
<!DOCTYPE svg PUBLIC "-//W3C//DTD SVG 1.1//EN"
 "http://www.w3.org/Graphics/SVG/1.1/DTD/svg11.dtd">
<!-- Generated by graphviz version 2.40.1 (20161225.0304)
 -->
<!-- Title: %3 Pages: 1 -->
<svg width="314pt" height="260pt"
 viewBox="0.00 0.00 314.00 260.00" xmlns="http://www.w3.org/2000/svg" xmlns:xlink="http://www.w3.org/1999/xlink">
<g id="graph0" class="graph" transform="scale(1 1) rotate(0) translate(4 256)">
<title>%3</title>
<polygon fill="#ffffff" stroke="transparent" points="-4,4 -4,-256 310,-256 310,4 -4,4"/>
<!-- 140607173970072 -->
<g id="node1" class="node">
<title>140607173970072</title>
<ellipse fill="none" stroke="#000000" cx="171" cy="-234" rx="27" ry="18"/>
<text text-anchor="middle" x="171" y="-230.3" font-family="Times,serif" font-size="14.00" fill="#000000">&#45;</text>
</g>
<!-- 140607173970688 -->
<g id="node2" class="node">
<title>140607173970688</title>
<ellipse fill="none" stroke="#000000" cx="135" cy="-162" rx="27" ry="18"/>
<text text-anchor="middle" x="135" y="-158.3" font-family="Times,serif" font-size="14.00" fill="#000000">*</text>
</g>
<!-- 140607173970072&#45;&gt;140607173970688 -->
<g id="edge5" class="edge">
<title>140607173970072&#45;&gt;140607173970688</title>
<path fill="none" stroke="#000000" d="M162.2854,-216.5708C158.0403,-208.0807 152.8464,-197.6929 148.1337,-188.2674"/>
<polygon fill="#000000" stroke="#000000" points="151.237,-186.6477 143.6343,-179.2687 144.976,-189.7782 151.237,-186.6477"/>
</g>
<!-- 140607173970856 -->
<g id="node7" class="node">
<title>140607173970856</title>
<ellipse fill="none" stroke="#000000" cx="207" cy="-162" rx="27" ry="18"/>
<text text-anchor="middle" x="207" y="-158.3" font-family="Times,serif" font-size="14.00" fill="#000000">^</text>
</g>
<!-- 140607173970072&#45;&gt;140607173970856 -->
<g id="edge8" class="edge">
<title>140607173970072&#45;&gt;140607173970856</title>
<path fill="none" stroke="#000000" d="M179.7146,-216.5708C183.9597,-208.0807 189.1536,-197.6929 193.8663,-188.2674"/>
<polygon fill="#000000" stroke="#000000" points="197.024,-189.7782 198.3657,-179.2687 190.763,-186.6477 197.024,-189.7782"/>
</g>
<!-- 140607173968056 -->
<g id="node3" class="node">
<title>140607173968056</title>
<ellipse fill="none" stroke="#000000" cx="63" cy="-90" rx="27" ry="18"/>
<text text-anchor="middle" x="63" y="-86.3" font-family="Times,serif" font-size="14.00" fill="#000000">+</text>
</g>
<!-- 140607173970688&#45;&gt;140607173968056 -->
<g id="edge3" class="edge">
<title>140607173970688&#45;&gt;140607173968056</title>
<path fill="none" stroke="#000000" d="M119.7307,-146.7307C109.803,-136.803 96.6847,-123.6847 85.5637,-112.5637"/>
<polygon fill="#000000" stroke="#000000" points="87.7933,-109.8436 78.2473,-105.2473 82.8436,-114.7933 87.7933,-109.8436"/>
</g>
<!-- 140607173971416 -->
<g id="node6" class="node">
<title>140607173971416</title>
<ellipse fill="none" stroke="#000000" cx="135" cy="-90" rx="27" ry="18"/>
<text text-anchor="middle" x="135" y="-86.3" font-family="Times,serif" font-size="14.00" fill="#000000">2</text>
</g>
<!-- 140607173970688&#45;&gt;140607173971416 -->
<g id="edge4" class="edge">
<title>140607173970688&#45;&gt;140607173971416</title>
<path fill="none" stroke="#000000" d="M135,-143.8314C135,-136.131 135,-126.9743 135,-118.4166"/>
<polygon fill="#000000" stroke="#000000" points="138.5001,-118.4132 135,-108.4133 131.5001,-118.4133 138.5001,-118.4132"/>
</g>
<!-- 140607173969288 -->
<g id="node4" class="node">
<title>140607173969288</title>
<ellipse fill="none" stroke="#000000" cx="27" cy="-18" rx="27" ry="18"/>
<text text-anchor="middle" x="27" y="-14.3" font-family="Times,serif" font-size="14.00" fill="#000000">2</text>
</g>
<!-- 140607173968056&#45;&gt;140607173969288 -->
<g id="edge1" class="edge">
<title>140607173968056&#45;&gt;140607173969288</title>
<path fill="none" stroke="#000000" d="M54.2854,-72.5708C50.0403,-64.0807 44.8464,-53.6929 40.1337,-44.2674"/>
<polygon fill="#000000" stroke="#000000" points="43.237,-42.6477 35.6343,-35.2687 36.976,-45.7782 43.237,-42.6477"/>
</g>
<!-- 140607173971640 -->
<g id="node5" class="node">
<title>140607173971640</title>
<ellipse fill="none" stroke="#000000" cx="99" cy="-18" rx="27" ry="18"/>
<text text-anchor="middle" x="99" y="-14.3" font-family="Times,serif" font-size="14.00" fill="#000000">4</text>
</g>
<!-- 140607173968056&#45;&gt;140607173971640 -->
<g id="edge2" class="edge">
<title>140607173968056&#45;&gt;140607173971640</title>
<path fill="none" stroke="#000000" d="M71.7146,-72.5708C75.9597,-64.0807 81.1536,-53.6929 85.8663,-44.2674"/>
<polygon fill="#000000" stroke="#000000" points="89.024,-45.7782 90.3657,-35.2687 82.763,-42.6477 89.024,-45.7782"/>
</g>
<!-- 140607173968168 -->
<g id="node8" class="node">
<title>140607173968168</title>
<ellipse fill="none" stroke="#000000" cx="207" cy="-90" rx="27" ry="18"/>
<text text-anchor="middle" x="207" y="-86.3" font-family="Times,serif" font-size="14.00" fill="#000000">3</text>
</g>
<!-- 140607173970856&#45;&gt;140607173968168 -->
<g id="edge6" class="edge">
<title>140607173970856&#45;&gt;140607173968168</title>
<path fill="none" stroke="#000000" d="M207,-143.8314C207,-136.131 207,-126.9743 207,-118.4166"/>
<polygon fill="#000000" stroke="#000000" points="210.5001,-118.4132 207,-108.4133 203.5001,-118.4133 210.5001,-118.4132"/>
</g>
<!-- 140607173971192 -->
<g id="node9" class="node">
<title>140607173971192</title>
<ellipse fill="none" stroke="#000000" cx="279" cy="-90" rx="27" ry="18"/>
<text text-anchor="middle" x="279" y="-86.3" font-family="Times,serif" font-size="14.00" fill="#000000">2</text>
</g>
<!-- 140607173970856&#45;&gt;140607173971192 -->
<g id="edge7" class="edge">
<title>140607173970856&#45;&gt;140607173971192</title>
<path fill="none" stroke="#000000" d="M222.2693,-146.7307C232.197,-136.803 245.3153,-123.6847 256.4363,-112.5637"/>
<polygon fill="#000000" stroke="#000000" points="259.1564,-114.7933 263.7527,-105.2473 254.2067,-109.8436 259.1564,-114.7933"/>
</g>
</g>
</svg>
